module github.com/mikeee/ChocoPackages/automatic/adobeair

go 1.19

require github.com/mikeee/chocohelpers v0.0.0-20230319152133-3e8505bd0f7b

require (
	github.com/chromedp/cdproto v0.0.0-20230319112347-6603f2c23d36 // indirect
	github.com/chromedp/chromedp v0.9.1 // indirect
	github.com/chromedp/sysutil v1.0.0 // indirect
	github.com/gobwas/httphead v0.1.0 // indirect
	github.com/gobwas/pool v0.2.1 // indirect
	github.com/gobwas/ws v1.1.0 // indirect
	github.com/josharian/intern v1.0.0 // indirect
	github.com/mailru/easyjson v0.7.7 // indirect
	golang.org/x/sys v0.6.0 // indirect
)
